        -:    0:Source:tests.c
        -:    0:Graph:tests.gcno
        -:    0:Data:tests.gcda
        -:    0:Runs:1
        -:    0:Programs:1
        -:    1:#include <stdio.h>
        -:    2:#include <string.h>
        -:    3:#include <stdbool.h>
        -:    4:#include "CUnit.h"
        -:    5:#include "Automated.h"
        -:    6:#include "calculate.h"
        -:    7:
        -:    8:
        -:    9:/* Runs a test input that *should* pass and produce an int result
        -:   10: */
        -:   11:
        1:   12:void test01(void) {
        1:   13:  int expected = 100;
        1:   14:  int actual = calculate(13000,0,1);
        1:   15:  CU_ASSERT_EQUAL( expected , actual );
        1:   16:}
        -:   17:
        -:   18:
        1:   19:void test02(void)
        -:   20:{
        -:   21:
        -:   22://Just a function to see if assert works 
        1:   23:int expected =  0;
        -:   24://int actual = 0;
        1:   25:int actual = calculate(0,0,0);
        1:   26:CU_ASSERT_EQUAL(expected, actual);
        -:   27:
        1:   28:}
        -:   29:
        -:   30:
        -:   31:
        1:   32:void test03(void)
        -:   33:{
        1:   34:int expected = 5000;
        1:   35:int actual = calculate(50000,1,1);
        1:   36:CU_ASSERT_EQUAL(expected, actual);
        -:   37:
        -:   38:
        1:   39:}
        -:   40:
        1:   41:void test04(void)
        -:   42:{
        1:   43:int expected = 15000;
        1:   44:int actual = calculate(100000,0,0);
        1:   45:CU_ASSERT_EQUAL(expected, actual);
        -:   46:
        1:   47:}
        -:   48:
        -:   49:
        1:   50:void test05(void) 
        -:   51:{
        -:   52://The tax should be zero since -1 adults and kids.
        1:   53:int expected = 0;
        1:   54:int actual = calculate(-100,-1,-1);
        1:   55:CU_ASSERT_EQUAL(expected, actual);
        -:   56:
        1:   57:}
        -:   58:
        -:   59:
        -:   60:/* The main() function for setting up and running the tests.
        -:   61: * Returns a CUE_SUCCESS on successful running, another
        -:   62: * CUnit error code on failure.
        -:   63: */
        1:   64:int main()
        -:   65:{
        1:   66:   CU_pSuite Suite = NULL;
        -:   67:
        -:   68:   /* initialize the CUnit test registry */
        1:   69:   if (CUE_SUCCESS != CU_initialize_registry()) { return CU_get_error(); }
        -:   70:
        -:   71:   /* add a suite to the registry */
        1:   72:   Suite = CU_add_suite("Suite_of_tests_with_valid_inputs", NULL, NULL);
        1:   73:   if (NULL == Suite) {
    #####:   74:      CU_cleanup_registry();
    #####:   75:      return CU_get_error();
        -:   76:   }
        -:   77:
        -:   78:   /* add the tests to Suite */
        1:   79:   if (
        1:   80:          (NULL == CU_add_test(Suite, "13000/0/1", test01)) 
        1:   81:           || (NULL == CU_add_test(Suite, "0/0/0", test02))
        1:   82:           || (NULL == CU_add_test(Suite, "50,000/1/1", test03))
        1:   83:           || (NULL == CU_add_test(Suite, "100,000/0/0", test04))
        1:   84:           || (NULL == CU_add_test(Suite, "-100,000/0/0", test05))
        -:   85:  
        -:   86:      )
        -:   87:   {
    #####:   88:      CU_cleanup_registry();
    #####:   89:      return CU_get_error();
        -:   90:   }
        -:   91:
        -:   92:   /* Run all tests using automated interface, with output to 'test-Results.xml' */
        1:   93:   CU_set_output_filename("test");
        1:   94:   CU_automated_run_tests();
        -:   95:
        1:   96:   CU_cleanup_registry();
        1:   97:   return CU_get_error();
        -:   98:}
